unit_02_confirmatory_data_analysis/mastery/punching-parkinsons/punch-v1/data/2-punch.csv

#Digilent WaveForms Oscilloscope Acquisition
#Device Name: Discovery2
#Serial Number: SN:210321A80071
#Date Time: 2019-03-02 09:35:08.533
#Sample rate: 800Hz
#Samples: 6540
#Trigger: Source: Channel 1 Type: Edge Condition: Rising Level: 0 V Hyst.: Auto HoldOff: 0 s
#Channel 1: Range: 1 V/div Offset: 0 V

Time (s),Channel 1 (V)
-5,0.249455
-4.99875,1.71109
-4.9975,1.71109
-4.99625,1.71479
-4.995,1.71109
-4.99375,1.71109
-4.9925,1.70739
-4.99125,1.70739
-4.99,1.70369
-4.98875,1.70369
-4.9875,1.69999
-4.98625,1.70369
-4.985,1.70739
-4.98375,1.70739
-4.9825,1.71109
-4.98125,1.71109
-4.98,1.71109
-4.97875,1.71109
-4.9775,1.71109
-4.97625,1.70739
-4.975,1.70739
-4.97375,1.70369
-4.9725,1.70369
-4.97125,1.69999
-4.97,1.69999
-4.96875,1.70739
-4.9675,1.70739
-4.96625,1.71109
-4.965,1.71109
-4.96375,1.71109
-4.9625,1.71479
-4.96125,1.71479
-4.96,1.71479
-4.95875,1.71479
-4.9575,1.71109
-4.95625,1.71109
-4.955,1.65929
-4.95375,1.67779
-4.9525,1.70369
-4.95125,1.70739
-4.95,1.70739
-4.94875,1.71109
-4.9475,1.71109
-4.94625,1.71109
-4.945,1.71109
-4.94375,1.70739
-4.9425,1.70739
-4.94125,1.70369
-4.94,1.70369
-4.93875,1.69999
-4.9375,1.69999
-4.93625,1.70369
-4.935,1.70369
-4.93375,1.70739
-4.9325,1.71109
-4.93125,1.71109
-4.93,1.71109
-4.92875,1.71479
-4.9275,1.71109
-4.92625,1.70739
-4.925,1.70739
-4.92375,1.70369
-4.9225,1.70369
-4.92125,1.69999
-4.92,1.70369
-4.91875,1.70369
-4.9175,1.70739
-4.91625,1.71109
-4.915,1.71109
-4.91375,1.71849
-4.9125,1.71849
-4.91125,1.71849
-4.91,1.71479
-4.90875,1.69629
-4.9075,1.66299
-4.90625,1.69999
-4.905,1.69999
-4.90375,1.69999
-4.9025,1.70369
-4.90125,1.70739
-4.9,1.70739
-4.89875,1.71109
-4.8975,1.71109
-4.89625,1.71109
-4.895,1.71109
-4.89375,1.70739
-4.8925,1.70739
-4.89125,1.70369
-4.89,1.70369
-4.88875,1.69999
-4.8875,1.69999
-4.88625,1.70369
-4.885,1.70739
-4.88375,1.70739
-4.8825,1.71109
-4.88125,1.71109
-4.88,1.71109
-4.87875,1.71109
-4.8775,1.71109
-4.87625,1.70739
-4.875,1.70739
-4.87375,1.70369
-4.8725,1.70369
-4.87125,1.69999
-4.87,1.70369
-4.86875,1.70369
-4.8675,1.71109
-4.86625,1.71479
-4.865,1.71849
-4.86375,1.71849
-4.8625,1.71849
-4.86125,1.68149
-4.86,1.67409
-4.85875,1.70739
-4.8575,1.70369
-4.85625,1.70369
-4.855,1.69999
-4.85375,1.69999
-4.8525,1.70369
-4.85125,1.70739
-4.85,1.70739
-4.84875,1.71109
-4.8475,1.71109
-4.84625,1.71109
-4.845,1.71109
-4.84375,1.71109
-4.8425,1.70739
-4.84125,1.70739
-4.84,1.70369
-4.83875,1.69999
-4.8375,1.69999
-4.83625,1.70369
-4.835,1.70739
-4.83375,1.70739
-4.8325,1.71109
-4.83125,1.71109
-4.83,1.71109
-4.82875,1.71479
-4.8275,1.71109
-4.82625,1.70739
-4.825,1.70739
-4.82375,1.70369
-4.8225,1.70369
-4.82125,1.69999
-4.82,1.70739
-4.81875,1.71109
-4.8175,1.71479
-4.81625,1.71479
-4.815,1.71109
-4.81375,1.66669
-4.8125,1.69999
-4.81125,1.71109
-4.81,1.70739
-4.80875,1.70739
-4.8075,1.70739
-4.80625,1.70369
-4.805,1.69999
-4.80375,1.69999
-4.8025,1.70369
-4.80125,1.70739
-4.8,1.70739
-4.79875,1.71109
-4.7975,1.71109
-4.79625,1.71479
-4.795,1.71109
-4.79375,1.70739
-4.7925,1.70739
-4.79125,1.70739
-4.79,1.70369
-4.78875,1.69999
-4.7875,1.69999
-4.78625,1.70369
-4.785,1.70739
-4.78375,1.70739
-4.7825,1.71109
-4.78125,1.71109
-4.78,1.71109
-4.77875,1.71479
-4.7775,1.71109
-4.77625,1.70739
-4.775,1.70739
-4.77375,1.70369
-4.7725,1.71109
-4.77125,1.70369
-4.77,1.70739
-4.76875,1.71109
-4.7675,1.68519
-4.76625,1.66669
-4.765,1.71479
-4.76375,1.71109
-4.7625,1.71479
-4.76125,1.71109
-4.76,1.70739
-4.75875,1.70739
-4.7575,1.70369
-4.75625,1.70369
-4.755,1.69999
-4.75375,1.69999
-4.7525,1.70369
-4.75125,1.70739
-4.75,1.70739
-4.74875,1.71109
-4.7475,1.71109
-4.74625,1.71479
-4.745,1.71109
-4.74375,1.70739
-4.7425,1.70739
-4.74125,1.70739
-4.74,1.70369
-4.73875,1.69999
-4.7375,1.69999
-4.73625,1.70369
-4.735,1.70739
-4.73375,1.70739
-4.7325,1.71109
-4.73125,1.71109
-4.73,1.71109
-4.72875,1.71109
-4.7275,1.71109
-4.72625,1.71109
-4.725,1.71479
-4.72375,1.71109
-4.7225,1.71109
-4.72125,1.70369
-4.72,1.66299
-4.71875,1.68519
-4.7175,1.70739
-4.71625,1.71109
-4.715,1.71109
-4.71375,1.71479
-4.7125,1.71479
-4.71125,1.71109
-4.71,1.70739
-4.70875,1.70739
-4.7075,1.70369
-4.70625,1.70369
-4.705,1.69999
-4.70375,1.69999
-4.7025,1.70369
-4.70125,1.70739
-4.7,1.70739
-4.69875,1.71109
-4.6975,1.71109
-4.69625,1.71479
-4.695,1.71479
-4.69375,1.71109
-4.6925,1.70739
-4.69125,1.70739
-4.69,1.70369
-4.68875,1.70369
-4.6875,1.69999
-4.68625,1.70369
-4.685,1.70739
-4.68375,1.70739
-4.6825,1.71109
-4.68125,1.71109
-4.68,1.71109
-4.67875,1.71849
-4.6775,1.71479
-4.67625,1.71479
-4.675,1.71479
-4.67375,1.69259
-4.6725,1.65929
-4.67125,1.69629
-4.67,1.69999
-4.66875,1.70369
-4.6675,1.70739
-4.66625,1.71109
-4.665,1.71109
-4.66375,1.71109
-4.6625,1.71479
-4.66125,1.71109
-4.66,1.70739
-4.65875,1.70739
-4.6575,1.70369
-4.65625,1.70369
-4.655,1.69999
-4.65375,1.69999
-4.6525,1.70369
-4.65125,1.70739
-4.65,1.70739
-4.64875,1.71109
-4.6475,1.71109
-4.64625,1.71479
-4.645,1.71109
-4.64375,1.70739
-4.6425,1.70739
-4.64125,1.70739
-4.64,1.70369
-4.63875,1.70369
-4.6375,1.69999
-4.63625,1.70369
-4.635,1.70739
-4.63375,1.70739
-4.6325,1.71479
-4.63125,1.71849
-4.63,1.71849
-4.62875,1.71849
-4.6275,1.71479
-4.62625,1.67409
-4.625,1.67409
-4.62375,1.70369
-4.6225,1.70369
-4.62125,1.69999
-4.62,1.70369
-4.61875,1.70369
-4.6175,1.70739
-4.61625,1.71109
-4.615,1.71109
-4.61375,1.71109
-4.6125,1.71479
-4.61125,1.71109
-4.61,1.70739
-4.60875,1.70739
-4.6075,1.70369
-4.60625,1.70369
-4.605,1.69999
-4.60375,1.69999
-4.6025,1.70369
-4.60125,1.70739
-4.6,1.70739
-4.59875,1.71109
-4.5975,1.71109
-4.59625,1.71479
-4.595,1.71109
-4.59375,1.71109
-4.5925,1.70739
-4.59125,1.70739
-4.59,1.70369
-4.58875,1.69999
-4.5875,1.69999
-4.58625,1.70369
-4.585,1.71109
-4.58375,1.71479
-4.5825,1.71849
-4.58125,1.71849
-4.58,1.71109
-4.57875,1.67039
-4.5775,1.69999
-4.57625,1.70739
-4.575,1.70739
-4.57375,1.70739
-4.5725,1.70369
-4.57125,1.69999
-4.57,1.70369
-4.56875,1.70739
-4.5675,1.70739
-4.56625,1.71109
-4.565,1.71109
-4.56375,1.71109
-4.5625,1.71479
-4.56125,1.71109
-4.56,1.70739
-4.55875,1.70739
-4.5575,1.70739
-4.55625,1.70369
-4.555,1.69999
-4.55375,1.69999
-4.5525,1.70369
-4.55125,1.70739
-4.55,1.70739
-4.54875,1.71109
-4.5475,1.71109
-4.54625,1.71479
-4.545,1.71109
-4.54375,1.71109
-4.5425,1.70739
-4.54125,1.70739
-4.54,1.70369
-4.53875,1.70369
-4.5375,1.70739
-4.53625,1.71109
-4.535,1.71109
-4.53375,1.71479
-4.5325,1.68519
-4.53125,1.67039
-4.53,1.71479
-4.52875,1.71109
-4.5275,1.71109
-4.52625,1.70739
-4.525,1.70739
-4.52375,1.70369
-4.5225,1.70369
-4.52125,1.69999
-4.52,1.69999
-4.51875,1.70369
-4.5175,1.70739
-4.51625,1.71109
-4.515,1.71109
-4.51375,1.71109
-4.5125,1.71109
-4.51125,1.71109
-4.51,1.70739
-4.50875,1.70739
-4.5075,1.70369
-4.50625,1.70369
-4.505,1.69999
-4.50375,1.69999
-4.5025,1.70369
-4.50125,1.70739
-4.5,1.70739
-4.49875,1.71109
-4.4975,1.71109
-4.49625,1.71479
-4.495,1.71109
-4.49375,1.70739
-4.4925,1.70739
-4.49125,1.71109
-4.49,1.71109
-4.48875,1.70739
-4.4875,1.70739
-4.48625,1.70739
-4.485,1.66299
-4.48375,1.68519
-4.4825,1.71109
-4.48125,1.71109
-4.48,1.71479
-4.47875,1.71479
-4.4775,1.71109
-4.47625,1.70739
-4.475,1.70739
-4.47375,1.70369
-4.4725,1.70369
-4.47125,1.69999
-4.47,1.69999
-4.46875,1.70369
-4.4675,1.70739
-4.46625,1.71109
-4.465,1.71109
-4.46375,1.71109
-4.4625,1.71479
-4.46125,1.71109
-4.46,1.70739
-4.45875,1.70739
-4.4575,1.70739
-4.45625,1.70369
-4.455,1.69999
-4.45375,1.69999
-4.4525,1.70369
-4.45125,1.70739
-4.45,1.71109
-4.44875,1.71109
-4.4475,1.71109
-4.44625,1.71479
-4.445,1.71109
-4.44375,1.71479
-4.4425,1.71479
-4.44125,1.71109
-4.44,1.71109
-4.43875,1.68889
-4.4375,1.65559
-4.43625,1.69629
-4.435,1.70369
-4.43375,1.70739
-4.4325,1.71109
-4.43125,1.71109
-4.43,1.71109
-4.42875,1.71109
-4.4275,1.71109
-4.42625,1.70739
-4.425,1.70369
-4.42375,1.70369
-4.4225,1.70369
-4.42125,1.69999
-4.42,1.70369
-4.41875,1.70369
-4.4175,1.70739
-4.41625,1.70739
-4.415,1.71109
-4.41375,1.71109
-4.4125,1.71109
-4.41125,1.71109
-4.41,1.70739
-4.40875,1.70739
-4.4075,1.70739
-4.40625,1.70369
-4.405,1.69999
-4.40375,1.69999
-4.4025,1.70369
-4.40125,1.70739
-4.4,1.70739
-4.39875,1.71109
-4.3975,1.71479
-4.39625,1.71849
-4.395,1.71849
-4.39375,1.71479
-4.3925,1.71479
-4.39125,1.67409
-4.39,1.67039
-4.38875,1.69999
-4.3875,1.69999
-4.38625,1.70369
-4.385,1.70739
-4.38375,1.70739
-4.3825,1.71109
-4.38125,1.71109
-4.38,1.71109
-4.37875,1.71109
-4.3775,1.70739
-4.37625,1.70739
-4.375,1.70369
-4.37375,1.70369
-4.3725,1.70369
-4.37125,1.69999
-4.37,1.69999
-4.36875,1.70369
-4.3675,1.70739
-4.36625,1.70739
-4.365,1.71109
-4.36375,1.71109
-4.3625,1.71479
-4.36125,1.71109
-4.36,1.70739
-4.35875,1.70739
-4.3575,1.70739
-4.35625,1.70369
-4.355,1.69999
-4.35375,1.69999
-4.3525,1.70369
-4.35125,1.70739
-4.35,1.71479
-4.34875,1.71479
-4.3475,1.71849
-4.34625,1.71849
-4.345,1.70739
-4.34375,1.66669
-4.3425,1.69259
-4.34125,1.70739
-4.34,1.70369
-4.33875,1.69999
-4.3375,1.69999
-4.33625,1.70369
-4.335,1.70739
-4.33375,1.70739
-4.3325,1.71109
-4.33125,1.71109
-4.33,1.71109
-4.32875,1.71109
-4.3275,1.71109
-4.32625,1.70739
-4.325,1.70739
-4.32375,1.70369
-4.3225,1.70369
-4.32125,1.69999
-4.32,1.70369
-4.31875,1.70739
-4.3175,1.70739
-4.31625,1.71109
-4.315,1.71109
-4.31375,1.71109
-4.3125,1.71479
-4.31125,1.71109
-4.31,1.70739
-4.30875,1.70739
-4.3075,1.70739
-4.30625,1.70369
-4.305,1.69999
-4.30375,1.70369
-4.3025,1.71109
-4.30125,1.71109
-4.3,1.71479
-4.29875,1.71479
-4.2975,1.68519
-4.29625,1.67409
-4.295,1.71479
-4.29375,1.70739
-4.2925,1.70739
-4.29125,1.70739
-4.29,1.70369
-4.28875,1.70369
-4.2875,1.69999
-4.28625,1.70369
-4.285,1.70739
-4.28375,1.70739
-4.2825,1.71109
-4.28125,1.71109
-4.28,1.71109
-4.27875,1.71109
-4.2775,1.71109
-4.27625,1.70739
-4.275,1.70739
-4.27375,1.70369
-4.2725,1.70369
-4.27125,1.69999
-4.27,1.69999
-4.26875,1.70739
-4.2675,1.70739
-4.26625,1.71109
-4.265,1.71109
-4.26375,1.71109
-4.2625,1.71109
-4.26125,1.71109
-4.26,1.70739
-4.25875,1.70739
-4.2575,1.70369
-4.25625,1.70739
-4.255,1.70739
-4.25375,1.70739
-4.2525,1.71109
-4.25125,1.71109
-4.25,1.66299
-4.24875,1.69259
-4.2475,1.71109
-4.24625,1.71109
-4.245,1.71109
-4.24375,1.70739
-4.2425,1.70739
-4.24125,1.70369
-4.24,1.70369
-4.23875,1.69999
-4.2375,1.69999
-4.23625,1.70369
-4.235,1.70369
-4.23375,1.70739
-4.2325,1.70739
-4.23125,1.71109
-4.23,1.71109
-4.22875,1.71109
-4.2275,1.71109
-4.22625,1.70739
-4.225,1.70739
-4.22375,1.70369
-4.2225,1.70369
-4.22125,1.69999
-4.22,1.69999
-4.21875,1.70369
-4.2175,1.70739
-4.21625,1.71109
-4.215,1.71109
-4.21375,1.71109
-4.2125,1.71479
-4.21125,1.71109
-4.21,1.70739
-4.20875,1.71109
-4.2075,1.71109
-4.20625,1.71109
-4.205,1.70739
-4.20375,1.68519
-4.2025,1.65929
-4.20125,1.70369
-4.2,1.70739
-4.19875,1.71109
-4.1975,1.71109
-4.19625,1.71109
-4.195,1.71109
-4.19375,1.71109
-4.1925,1.70739
-4.19125,1.70739
-4.19,1.70369
-4.18875,1.70369
-4.1875,1.69999
-4.18625,1.70369
-4.185,1.70369
-4.18375,1.70739
-4.1825,1.71109
-4.18125,1.71109
-4.18,1.71109
-4.17875,1.71109
-4.1775,1.71109
-4.17625,1.70739
-4.175,1.70739
-4.17375,1.70369
-4.1725,1.70369
-4.17125,1.69999
-4.17,1.70369
-4.16875,1.70369
-4.1675,1.70739
-4.16625,1.70739
-4.165,1.71109
-4.16375,1.71109
-4.1625,1.71479
-4.16125,1.71849
-4.16,1.71479
-4.15875,1.71479
-4.1575,1.71109
-4.15625,1.67039
-4.155,1.67039
-4.15375,1.69999
-4.1525,1.70369
-4.15125,1.70739
-4.15,1.70739
-4.14875,1.71109
-4.1475,1.71109
-4.14625,1.71109
-4.145,1.71109
-4.14375,1.70739
-4.1425,1.70739
-4.14125,1.70739
-4.14,1.70369
-4.13875,1.69999
-4.1375,1.69999
-4.13625,1.70369
-4.135,1.70369
-4.13375,1.70739
-4.1325,1.70739
-4.13125,1.71109
-4.13,1.71109
-4.12875,1.71109
-4.1275,1.71109
-4.12625,1.70739
-4.125,1.70739
-4.12375,1.70369
-4.1225,1.70369
-4.12125,1.69999
-4.12,1.70369
-4.11875,1.70369
-4.1175,1.70739
-4.11625,1.70739
-4.115,1.71479
-4.11375,1.71849
-4.1125,1.71849
-4.11125,1.71479
-4.11,1.70369
-4.10875,1.66299
-4.1075,1.69629
-4.10625,1.70369
-4.105,1.69999
-4.10375,1.69999
-4.1025,1.70369
-4.10125,1.70739
-4.1,1.70739
-4.09875,1.71109
-4.0975,1.71109
-4.09625,1.71109
-4.095,1.71109
-4.09375,1.70739
-4.0925,1.70739
-4.09125,1.70369
-4.09,1.70369
-4.08875,1.69999
-4.0875,1.69999
-4.08625,1.70369
-4.085,1.70369
-4.08375,1.70739
-4.0825,1.71109
-4.08125,1.71109
-4.08,1.71109
-4.07875,1.71109
-4.0775,1.71109
-4.07625,1.70739
-4.075,1.70739
-4.07375,1.70369
-4.0725,1.70369
-4.07125,1.69629
-4.07,1.69999
-4.06875,1.70739
-4.0675,1.71479
-4.06625,1.71479
-4.065,1.71479
-4.06375,1.71849
-4.0625,1.68519
-4.06125,1.67039
-4.06,1.70739
-4.05875,1.70369
-4.0575,1.70369
-4.05625,1.70369
-4.055,1.69999
-4.05375,1.69999
-4.0525,1.70369
-4.05125,1.70739
-4.05,1.70739
-4.04875,1.71109
-4.0475,1.71109
-4.04625,1.71109
-4.045,1.71109
-4.04375,1.70739
-4.0425,1.70739
-4.04125,1.70369
-4.04,1.70369
-4.03875,1.69999
-4.0375,1.69999
-4.03625,1.70369
-4.035,1.70369
-4.03375,1.70739
-4.0325,1.71109
-4.03125,1.71109
-4.03,1.71109
-4.02875,1.71109
-4.0275,1.71109
-4.02625,1.70739
-4.025,1.70739
-4.02375,1.70369
-4.0225,1.70369
-4.02125,1.70369
-4.02,1.70739
-4.01875,1.71109
-4.0175,1.71479
-4.01625,1.71479
-4.015,1.66669
-4.01375,1.69259
-4.0125,1.71479
-4.01125,1.71109
-4.01,1.70739
-4.00875,1.70739
-4.0075,1.70369
-4.00625,1.70369
-4.005,1.69999
-4.00375,1.69999
-4.0025,1.70369
-4.00125,1.70739
-4,1.70739
-3.99875,1.71109
-3.9975,1.71109
-3.99625,1.71109
-3.995,1.71109
-3.99375,1.70739
-3.9925,1.70739
-3.99125,1.70739
-3.99,1.70369
-3.98875,1.69999
-3.9875,1.69999
-3.98625,1.70369
-3.985,1.70739
-3.98375,1.70739
-3.9825,1.71109
-3.98125,1.71109
-3.98,1.71109
-3.97875,1.71109
-3.9775,1.71109
-3.97625,1.70739
-3.975,1.70739
-3.97375,1.71109
-3.9725,1.70739
-3.97125,1.70369
-3.97,1.70739
-3.96875,1.68889
-3.9675,1.66299
-3.96625,1.71109
-3.965,1.71109
-3.96375,1.71109
-3.9625,1.71479
-3.96125,1.71109
-3.96,1.70739
-3.95875,1.70739
-3.9575,1.70369
-3.95625,1.70369
-3.955,1.69999
-3.95375,1.69999
-3.9525,1.70369
-3.95125,1.70739
-3.95,1.70739
-3.94875,1.71109
-3.9475,1.71109
-3.94625,1.71109
-3.945,1.71109
-3.94375,1.71109
-3.9425,1.70739
-3.94125,1.70369
-3.94,1.70369
-3.93875,1.69999
-3.9375,1.69999
-3.93625,1.70369
-3.935,1.70369
-3.93375,1.70739
-3.9325,1.71109
-3.93125,1.71109
-3.93,1.71109
-3.92875,1.71109
-3.9275,1.71109
-3.92625,1.71479
-3.925,1.71109
-3.92375,1.71109
-3.9225,1.70739
-3.92125,1.66299
-3.92,1.67779
-3.91875,1.70369
-3.9175,1.70739
-3.91625,1.70739
-3.915,1.71109
-3.91375,1.71109
-3.9125,1.71109
-3.91125,1.71109
-3.91,1.70739
-3.90875,1.70369
-3.9075,1.70369
-3.90625,1.70369
-3.905,1.69999
-3.90375,1.69999
-3.9025,1.70369
-3.90125,1.70739
-3.9,1.70739
-3.89875,1.71109
-3.8975,1.71109
-3.89625,1.71109
-3.895,1.71109
-3.89375,1.70739
-3.8925,1.70739
-3.89125,1.70369
-3.89,1.70369
-3.88875,1.69999
-3.8875,1.69629
-3.88625,1.70369
-3.885,1.70369
-3.88375,1.70739
-3.8825,1.70739
-3.88125,1.71109
-3.88,1.71849
-3.87875,1.71849
-3.8775,1.71479
-3.87625,1.71479
-3.875,1.69999
-3.87375,1.65929
-3.8725,1.68889
-3.87125,1.69629
-3.87,1.69999
-3.86875,1.70369
-3.8675,1.70739
-3.86625,1.70739
-3.865,1.71109
-3.86375,1.71109
-3.8625,1.71109
-3.86125,1.71109
-3.86,1.70739
-3.85875,1.70369
-3.8575,1.70369
-3.85625,1.70369
-3.855,1.69999
-3.85375,1.69999
-3.8525,1.70369
-3.85125,1.70369
-3.85,1.70739
-3.84875,1.70739
-3.8475,1.71109
-3.84625,1.71109
-3.845,1.71109
-3.84375,1.70739
-3.8425,1.70739
-3.84125,1.70369
-3.84,1.70369
-3.83875,1.69999
-3.8375,1.69629
-3.83625,1.69999
-3.835,1.70369
-3.83375,1.70739
-3.8325,1.71479
-3.83125,1.71479
-3.83,1.71849
-3.82875,1.71849
-3.8275,1.68149
-3.82625,1.67039
-3.825,1.70739
-3.82375,1.70369
-3.8225,1.70369
-3.82125,1.69629
-3.82,1.69999
-3.81875,1.70369
-3.8175,1.70739
-3.81625,1.70739
-3.815,1.71109
-3.81375,1.71109
-3.8125,1.71109
-3.81125,1.71109
-3.81,1.70739
-3.80875,1.70369
-3.8075,1.70369
-3.80625,1.70369
-3.805,1.69999
-3.80375,1.69999
-3.8025,1.70369
-3.80125,1.70369
-3.8,1.70739
-3.79875,1.70739
-3.7975,1.71109
-3.79625,1.71109
-3.795,1.71109
-3.79375,1.70739
-3.7925,1.70739
-3.79125,1.70369
-3.79,1.70369
-3.78875,1.69999
-3.7875,1.69999
-3.78625,1.70739
-3.785,1.71109
-3.78375,1.71479
-3.7825,1.71479
-3.78125,1.71109
-3.78,1.66669
-3.77875,1.69259
-3.7775,1.70739
-3.77625,1.70739
-3.775,1.70739
-3.77375,1.70369
-3.7725,1.70369
-3.77125,1.69999
-3.77,1.69999
-3.76875,1.70369
-3.7675,1.70369
-3.76625,1.70739
-3.765,1.71109
-3.76375,1.71109
-3.7625,1.71109
-3.76125,1.71109
-3.76,1.70739
-3.75875,1.70739
-3.7575,1.70369
-3.75625,1.70369
-3.755,1.69999
-3.75375,1.69999
-3.7525,1.70369
-3.75125,1.70369
-3.75,1.70739
-3.74875,1.70739
-3.7475,1.71109
-3.74625,1.71109
-3.745,1.71109
-3.74375,1.70739
-3.7425,1.70739
-3.74125,1.70369
-3.74,1.70369
-3.73875,1.70739
-3.7375,1.70369
-3.73625,1.70739
-3.735,1.71109
-3.73375,1.69259
-3.7325,1.66669
-3.73125,1.70369
-3.73,1.71109
-3.72875,1.71109
-3.7275,1.71109
-3.72625,1.70739
-3.725,1.70739
-3.72375,1.70369
-3.7225,1.70369
-3.72125,1.69629
-3.72,1.69999
-3.71875,1.70369
-3.7175,1.70739
-3.71625,1.70739
-3.715,1.71109
-3.71375,1.71109
-3.7125,1.71109
-3.71125,1.71109
-3.71,1.70739
-3.70875,1.70739
-3.7075,1.70369
-3.70625,1.70369
-3.705,1.69999
-3.70375,1.69999
-3.7025,1.70369
-3.70125,1.70369
-3.7,1.70739
-3.69875,1.71109
-3.6975,1.71109
-3.69625,1.71109
-3.695,1.71109
-3.69375,1.70739
-3.6925,1.70739
-3.69125,1.71109
-3.69,1.71109
-3.68875,1.70739
-3.6875,1.70369
-3.68625,1.66669
-3.685,1.68149
-3.68375,1.70739
-3.6825,1.71109
-3.68125,1.71109
-3.68,1.71109
-3.67875,1.71109
-3.6775,1.71479
-3.67625,1.84801
-3.675,1.27815
-3.67375,1.46687
-3.6725,1.41506
-3.67125,1.48167
-3.67,1.52237
-3.66875,1.51867
-3.6675,1.47797
-3.66625,1.43727
-3.665,1.41506
-3.66375,1.42617
-3.6625,1.16714
-3.66125,1.42987
-3.66,1.48907
-3.65875,1.29665
-3.6575,1.35956
-3.65625,1.38546
-3.655,1.40396
-3.65375,1.40766
-3.6525,1.38916
-3.65125,1.37066
-3.65,1.37806
-3.64875,1.38176
-3.6475,1.38546
-3.64625,1.37066
-3.645,1.37806
-3.64375,1.38176
-3.6425,1.37806
-3.64125,1.37436
-3.64,1.35586
-3.63875,1.31145
-3.6375,1.34106
-3.63625,1.34846
-3.635,1.35216
-3.63375,1.34106
-3.6325,1.33366
-3.63125,1.32626
-3.63,1.35216
-3.62875,1.35586
-3.6275,1.34846
-3.62625,1.34106
-3.625,1.34106
-3.62375,1.33736
-3.6225,1.34106
-3.62125,1.34106
-3.62,1.33736
-3.61875,1.33366
-3.6175,1.33736
-3.61625,1.34476
-3.615,1.34106
-3.61375,1.34106
-3.6125,1.34106
-3.61125,1.33366
-3.61,1.33736
-3.60875,1.34106
-3.6075,1.32996
-3.60625,1.32626
-3.605,1.31886
-3.60375,1.33366
-3.6025,1.33366
-3.60125,1.33366
-3.6,1.34106
-3.59875,1.34106
-3.5975,1.34476
-3.59625,1.34846
-3.595,1.34846
-3.59375,1.35216
-3.5925,1.31145
-3.59125,1.30405
-3.59,1.35216
-3.58875,1.35216
-3.5875,1.35216
-3.58625,1.35586
-3.585,1.35956
-3.58375,1.36696
-3.5825,1.37066
-3.58125,1.37066
-3.58,1.37436
-3.57875,1.37436
-3.5775,1.37436
-3.57625,1.37066
-3.575,1.37066
-3.57375,1.36696
-3.5725,1.36696
-3.57125,1.36326
-3.57,1.36696
-3.56875,1.37066
-3.5675,1.37066
-3.56625,1.37436
-3.565,1.37436
-3.56375,1.37806
-3.5625,1.37806
-3.56125,1.38176
-3.56,1.37806
-3.55875,1.37066
-3.5575,1.37066
-3.55625,1.37066
-3.555,1.36696
-3.55375,1.36696
-3.5525,1.37066
-3.55125,1.37806
-3.55,1.38176
-3.54875,1.38176
-3.5475,1.38546
-3.54625,1.38546
-3.545,1.32626
-3.54375,1.35586
-3.5425,1.38176
-3.54125,1.38546
-3.54,1.38546
-3.53875,1.38546
-3.5375,1.37806
-3.53625,1.38176
-3.535,1.38176
-3.53375,1.38176
-3.5325,1.38546
-3.53125,1.38916
-3.53,1.39286
-3.52875,1.39286
-3.5275,1.38916
-3.52625,1.38916
-3.525,1.38546
-3.52375,1.38546
-3.5225,1.38546
-3.52125,1.38176
-3.52,1.38546
-3.51875,1.38916
-3.5175,1.38916
-3.51625,1.39286
-3.515,1.39656
-3.51375,1.39656
-3.5125,1.39656
-3.51125,1.39656
-3.51,1.39656
-3.50875,1.39656
-3.5075,1.39286
-3.50625,1.39286
-3.505,1.38916
-3.50375,1.39656
-3.5025,1.40026
-3.50125,1.40026
-3.5,1.40396
-3.49875,1.37436
-3.4975,1.34476
-3.49625,1.40396
-3.495,1.40396
-3.49375,1.40026
-3.4925,1.40026
-3.49125,1.40026
-3.49,1.40026
-3.48875,1.39656
-3.4875,1.39656
-3.48625,1.40026
-3.485,1.40026
-3.48375,1.40396
-3.4825,1.40766
-3.48125,1.40766
-3.48,1.40766
-3.47875,1.41136
-3.4775,1.40766
-3.47625,1.40766
-3.475,1.40766
