unit_02_confirmatory_data_analysis/mastery/punching-parkinsons/punch-v1/data/spikey.csv

#Digilent WaveForms Oscilloscope Acquisition
#Device Name: Discovery2
#Serial Number: SN:210321A80071
#Date Time: 2019-03-02 17:15:15.389
#Sample rate: 400Hz
#Samples: 7430
#Trigger: Source: Channel 1 Type: Edge Condition: Rising Level: 0 V Hyst.: Auto HoldOff: 0 s
#Channel 1: Range: 500 mV/div Offset: -1.65 V

Time (s),Channel 1 (V)
-11.4,1.6133
-11.3975,1.60858
-11.395,1.60655
-11.3925,1.60891
-11.39,1.6133
-11.3875,1.61599
-11.385,1.61599
-11.3825,1.61094
-11.38,1.60858
-11.3775,1.60588
-11.375,1.6106
-11.3725,1.61464
-11.37,1.61667
-11.3675,1.61464
-11.365,1.60925
-11.3625,1.60757
-11.36,1.60689
-11.3575,1.61229
-11.355,1.61431
-11.3525,1.61768
-11.35,1.61229
-11.3475,1.60858
-11.345,1.60588
-11.3425,1.60858
-11.34,1.61363
-11.3375,1.61566
-11.335,1.61633
-11.3325,1.6106
-11.33,1.6079
-11.3275,1.60554
-11.325,1.61094
-11.3225,1.61464
-11.32,1.617
-11.3175,1.61397
-11.315,1.60925
-11.3125,1.60723
-11.31,1.60655
-11.3075,1.61161
-11.305,1.61464
-11.3025,1.617
-11.3,1.61229
-11.2975,1.60858
-11.295,1.60622
-11.2925,1.60858
-11.29,1.61296
-11.2875,1.61599
-11.285,1.61633
-11.2825,1.61161
-11.28,1.60824
-11.2775,1.60521
-11.275,1.6106
-11.2725,1.61431
-11.27,1.61667
-11.2675,1.61498
-11.265,1.60925
-11.2625,1.60757
-11.26,1.60622
-11.2575,1.61229
-11.255,1.61498
-11.2525,1.61734
-11.25,1.61229
-11.2475,1.60858
-11.245,1.60655
-11.2425,1.60858
-11.24,1.61363
-11.2375,1.61498
-11.235,1.61498
-11.2325,1.61026
-11.23,1.60723
-11.2275,1.60453
-11.225,1.60993
-11.2225,1.61296
-11.22,1.61566
-11.2175,1.6133
-11.215,1.60891
-11.2125,1.60655
-11.21,1.60622
-11.2075,1.61127
-11.205,1.61431
-11.2025,1.61734
-11.2,1.61195
-11.1975,1.6079
-11.195,1.60622
-11.1925,1.6079
-11.19,1.61363
-11.1875,1.61633
-11.185,1.61667
-11.1825,1.6106
-11.18,1.60824
-11.1775,1.60588
-11.175,1.61127
-11.1725,1.61464
-11.17,1.617
-11.1675,1.61464
-11.165,1.60925
-11.1625,1.60723
-11.16,1.60689
-11.1575,1.61229
-11.155,1.61532
-11.1525,1.617
-11.15,1.61262
-11.1475,1.60858
-11.145,1.60689
-11.1425,1.60858
-11.14,1.6133
-11.1375,1.61532
-11.135,1.61599
-11.1325,1.61094
-11.13,1.60858
-11.1275,1.60588
-11.125,1.6106
-11.1225,1.61431
-11.12,1.617
-11.1175,1.61464
-11.115,1.60959
-11.1125,1.60757
-11.11,1.60689
-11.1075,1.61195
-11.105,1.61464
-11.1025,1.61768
-11.1,1.61262
-11.0975,1.60858
-11.095,1.60655
-11.0925,1.6079
-11.09,1.61363
-11.0875,1.61566
-11.085,1.61633
-11.0825,1.61127
-11.08,1.6079
-11.0775,1.60521
-11.075,1.61026
-11.0725,1.61464
-11.07,1.61667
-11.0675,1.61431
-11.065,1.60925
-11.0625,1.60655
-11.06,1.60655
-11.0575,1.61195
-11.055,1.61498
-11.0525,1.617
-11.05,1.61195
-11.0475,1.60824
-11.045,1.60554
-11.0425,1.60824
-11.04,1.6133
-11.0375,1.61566
-11.035,1.61633
-11.0325,1.6106
-11.03,1.60757
-11.0275,1.60521
-11.025,1.6106
-11.0225,1.61397
-11.02,1.61633
-11.0175,1.61397
-11.015,1.60891
-11.0125,1.60689
-11.01,1.60622
-11.0075,1.61195
-11.005,1.61498
-11.0025,1.617
-11,1.61229
-10.9975,1.60858
-10.995,1.60622
-10.9925,1.6079
-10.99,1.61161
-10.9875,1.61431
-10.985,1.61532
-10.9825,1.60959
-10.98,1.60689
-10.9775,1.60453
-10.975,1.60925
-10.9725,1.6133
-10.97,1.61633
-10.9675,1.61363
-10.965,1.60925
-10.9625,1.60655
-10.96,1.60554
-10.9575,1.61094
-10.955,1.61431
-10.9525,1.61667
-10.95,1.61229
-10.9475,1.60858
-10.945,1.60588
-10.9425,1.60824
-10.94,1.6133
-10.9375,1.61566
-10.935,1.61633
-10.9325,1.6106
-10.93,1.6079
-10.9275,1.60554
-10.925,1.61026
-10.9225,1.61464
-10.92,1.61667
-10.9175,1.61431
-10.915,1.60959
-10.9125,1.60757
-10.91,1.60655
-10.9075,1.61195
-10.905,1.61464
-10.9025,1.61734
-10.9,1.61229
-10.8975,1.60891
-10.895,1.60655
-10.8925,1.60824
-10.89,1.6133
-10.8875,1.61532
-10.885,1.61667
-10.8825,1.61127
-10.88,1.6079
-10.8775,1.60554
-10.875,1.61026
-10.8725,1.61431
-10.87,1.61667
-10.8675,1.61431
-10.865,1.60959
-10.8625,1.60723
-10.86,1.60622
-10.8575,1.61195
-10.855,1.61498
-10.8525,1.617
-10.85,1.61262
-10.8475,1.60858
-10.845,1.60588
-10.8425,1.60824
-10.84,1.6133
-10.8375,1.61599
-10.835,1.61633
-10.8325,1.61026
-10.83,1.6079
-10.8275,1.60554
-10.825,1.6106
-10.8225,1.61431
-10.82,1.61667
-10.8175,1.61431
-10.815,1.60925
-10.8125,1.60723
-10.81,1.60655
-10.8075,1.61229
-10.805,1.61498
-10.8025,1.61667
-10.8,1.61262
-10.7975,1.60858
-10.795,1.60655
-10.7925,1.60824
-10.79,1.61296
-10.7875,1.61566
-10.785,1.61599
-10.7825,1.6106
-10.78,1.6079
-10.7775,1.60588
-10.775,1.60993
-10.7725,1.61431
-10.77,1.61633
-10.7675,1.61464
-10.765,1.60925
-10.7625,1.60723
-10.76,1.60588
-10.7575,1.61161
-10.755,1.61498
-10.7525,1.617
-10.75,1.61161
-10.7475,1.60757
-10.745,1.60487
-10.7425,1.60723
-10.74,1.61229
-10.7375,1.61498
-10.735,1.61566
-10.7325,1.6106
-10.73,1.60723
-10.7275,1.60554
-10.725,1.6106
-10.7225,1.61397
-10.72,1.61633
-10.7175,1.61397
-10.715,1.60925
-10.7125,1.60655
-10.71,1.60622
-10.7075,1.61161
-10.705,1.61532
-10.7025,1.617
-10.7,1.61262
-10.6975,1.60891
-10.695,1.60655
-10.6925,1.60891
-10.69,1.61296
-10.6875,1.61498
-10.685,1.61633
-10.6825,1.61094
-10.68,1.60824
-10.6775,1.60588
-10.675,1.60993
-10.6725,1.61464
-10.67,1.61667
-10.6675,1.61498
-10.665,1.60959
-10.6625,1.60689
-10.66,1.60655
-10.6575,1.61195
-10.655,1.61498
-10.6525,1.61734
-10.65,1.61262
-10.6475,1.60858
-10.645,1.60655
-10.6425,1.60824
-10.64,1.6133
-10.6375,1.61566
-10.635,1.61633
-10.6325,1.61094
-10.63,1.6079
-10.6275,1.60588
-10.625,1.6106
-10.6225,1.61464
-10.62,1.61633
-10.6175,1.61397
-10.615,1.60993
-10.6125,1.60757
-10.61,1.60689
-10.6075,1.61229
-10.605,1.61431
-10.6025,1.61734
-10.6,1.61296
-10.5975,1.60891
-10.595,1.60655
-10.5925,1.60757
-10.59,1.6133
-10.5875,1.61599
-10.585,1.61667
-10.5825,1.61094
-10.58,1.6079
-10.5775,1.60521
-10.575,1.60993
-10.5725,1.61431
-10.57,1.617
-10.5675,1.61464
-10.565,1.60959
-10.5625,1.60655
-10.56,1.60655
-10.5575,1.61229
-10.555,1.61498
-10.5525,1.61734
-10.55,1.61229
-10.5475,1.6079
-10.545,1.60588
-10.5425,1.60858
-10.54,1.6133
-10.5375,1.61566
-10.535,1.61633
-10.5325,1.6106
-10.53,1.6079
-10.5275,1.60554
-10.525,1.61026
-10.5225,1.61431
-10.52,1.61633
-10.5175,1.61431
-10.515,1.60959
-10.5125,1.60723
-10.51,1.60622
-10.5075,1.61161
-10.505,1.61397
-10.5025,1.61633
-10.5,1.61195
-10.4975,1.60757
-10.495,1.60554
-10.4925,1.6079
-10.49,1.61195
-10.4875,1.61498
-10.485,1.61599
-10.4825,1.61026
-10.48,1.60723
-10.4775,1.60521
-10.475,1.60925
-10.4725,1.61397
-10.47,1.61599
-10.4675,1.61431
-10.465,1.60925
-10.4625,1.60588
-10.46,1.60622
-10.4575,1.61195
-10.455,1.61464
-10.4525,1.61734
-10.45,1.61229
-10.4475,1.60757
-10.445,1.60588
-10.4425,1.6079
-10.44,1.6133
-10.4375,1.61566
-10.435,1.61633
-10.4325,1.61026
-10.43,1.6079
-10.4275,1.60554
-10.425,1.61026
-10.4225,1.61431
-10.42,1.61599
-10.4175,1.61431
-10.415,1.60959
-10.4125,1.60689
-10.41,1.60655
-10.4075,1.61195
-10.405,1.61532
-10.4025,1.61667
-10.4,1.61229
-10.3975,1.60858
-10.395,1.60655
-10.3925,1.60824
-10.39,1.61296
-10.3875,1.61566
-10.385,1.61633
-10.3825,1.61094
-10.38,1.6079
-10.3775,1.60554
-10.375,1.61026
-10.3725,1.61431
-10.37,1.61667
-10.3675,1.61464
-10.365,1.60993
-10.3625,1.60689
-10.36,1.60622
-10.3575,1.61195
-10.355,1.61464
-10.3525,1.61734
-10.35,1.61262
-10.3475,1.60824
-10.345,1.60655
-10.3425,1.6079
-10.34,1.61363
-10.3375,1.61566
-10.335,1.61633
-10.3325,1.61094
-10.33,1.60824
-10.3275,1.60554
-10.325,1.61026
-10.3225,1.61431
-10.32,1.61599
-10.3175,1.61431
-10.315,1.60959
-10.3125,1.60723
-10.31,1.60622
-10.3075,1.61161
-10.305,1.61464
-10.3025,1.617
-10.3,1.61229
-10.2975,1.60824
-10.295,1.60622
-10.2925,1.60824
-10.29,1.61262
-10.2875,1.61532
-10.285,1.61633
-10.2825,1.61094
-10.28,1.60757
-10.2775,1.60554
-10.275,1.60993
-10.2725,1.61464
-10.27,1.61667
-10.2675,1.61464
-10.265,1.60993
-10.2625,1.60655
-10.26,1.60588
-10.2575,1.61094
-10.255,1.61464
-10.2525,1.61667
-10.25,1.61161
-10.2475,1.60757
-10.245,1.60521
-10.2425,1.60757
-10.24,1.61296
-10.2375,1.61566
-10.235,1.61599
-10.2325,1.6106
-10.23,1.60824
-10.2275,1.60588
-10.225,1.61094
-10.2225,1.61532
-10.22,1.61734
-10.2175,1.61633
-10.215,1.61229
-10.2125,1.61127
-10.21,1.61094
-10.2075,1.617
-10.205,1.62071
-10.2025,1.62274
-10.2,1.61835
-10.1975,1.61431
-10.195,1.61161
-10.1925,1.61363
-10.19,1.61768
-10.1875,1.6197
-10.185,1.62071
-10.1825,1.61431
-10.18,1.6106
-10.1775,1.6079
-10.175,1.61161
-10.1725,1.61599
-10.17,1.61835
-10.1675,1.61633
-10.165,1.61195
-10.1625,1.60858
-10.16,1.60891
-10.1575,1.61464
-10.155,1.61869
-10.1525,1.62105
-10.15,1.61599
-10.1475,1.61262
-10.145,1.60993
-10.1425,1.61262
-10.14,1.61802
-10.1375,1.62038
-10.135,1.62139
-10.1325,1.61566
-10.13,1.6133
-10.1275,1.61094
-10.125,1.61633
-10.1225,1.62071
-10.12,1.6224
-10.1175,1.62004
-10.115,1.61363
-10.1125,1.61161
-10.11,1.6106
-10.1075,1.61599
-10.105,1.6197
-10.1025,1.62071
-10.1,1.61566
-10.0975,1.61127
-10.095,1.6079
-10.0925,1.60993
-10.09,1.61464
-10.0875,1.61667
-10.085,1.617
-10.0825,1.61195
-10.08,1.60925
-10.0775,1.60655
-10.075,1.61161
-10.0725,1.61532
-10.07,1.61835
-10.0675,1.61599
-10.065,1.61094
-10.0625,1.60824
-10.06,1.60723
-10.0575,1.61262
-10.055,1.61599
-10.0525,1.61835
-10.05,1.61363
-10.0475,1.60891
-10.045,1.60655
-10.0425,1.6079
-10.04,1.61296
-10.0375,1.61566
-10.035,1.61532
-10.0325,1.60993
-10.03,1.60622
-10.0275,1.60352
-10.025,1.60891
-10.0225,1.61262
-10.02,1.61464
-10.0175,1.61262
-10.015,1.60723
-10.0125,1.60352
-10.01,1.60352
-10.0075,1.60959
-10.005,1.61229
-10.0025,1.61498
-10,1.6106
-9.9975,1.60554
-9.995,1.60318
-9.9925,1.60588
-9.99,1.61161
-9.9875,1.61431
-9.985,1.61498
-9.9825,1.60925
-9.98,1.60622
-9.9775,1.60453
-9.975,1.60925
-9.9725,1.6133
-9.97,1.61532
-9.9675,1.61363
-9.965,1.60824
-9.9625,1.60655
-9.96,1.60588
-9.9575,1.61127
-9.955,1.61464
-9.9525,1.61667
-9.95,1.61127
-9.9475,1.6079
-9.945,1.60554
-9.9425,1.60757
-9.94,1.61296
-9.9375,1.61431
-9.935,1.61498
-9.9325,1.61026
-9.93,1.60757
-9.9275,1.60622
-9.925,1.61127
-9.9225,1.61566
-9.92,1.61936
-9.9175,1.61903
-9.915,1.61566
-9.9125,1.61464
-9.91,1.61532
-9.9075,1.62004
-9.905,1.62307
-9.9025,1.62509
-9.9,1.61903
-9.8975,1.6133
-9.895,1.60925
-9.8925,1.60858
-9.89,1.6133
-9.8875,1.61599
-9.885,1.61734
-9.8825,1.61363
-9.88,1.61094
-9.8775,1.60925
-9.875,1.6133
-9.8725,1.61936
-9.87,1.62307
-9.8675,1.62206
-9.865,1.617
-9.8625,1.6133
-9.86,1.61262
-9.8575,1.61734
-9.855,1.62004
-9.8525,1.62139
-9.85,1.61498
-9.8475,1.60959
-9.845,1.60622
-9.8425,1.6079
-9.84,1.61296
-9.8375,1.61532
-9.835,1.61633
-9.8325,1.6106
-9.83,1.6079
-9.8275,1.60554
-9.825,1.6106
-9.8225,1.61498
-9.82,1.617
-9.8175,1.61532
-9.815,1.61161
-9.8125,1.60925
-9.81,1.60925
-9.8075,1.61498
-9.805,1.61869
-9.8025,1.62071
-9.8,1.61599
-9.7975,1.61229
-9.795,1.60959
-9.7925,1.61195
-9.79,1.61667
-9.7875,1.6197
-9.785,1.62105
-9.7825,1.61532
-9.78,1.61229
-9.7775,1.6106
-9.775,1.61566
-9.7725,1.62038
-9.77,1.62274
-9.7675,1.62105
-9.765,1.61667
-9.7625,1.61431
-9.76,1.61363
-9.7575,1.6197
-9.755,1.62274
-9.7525,1.62442
-9.75,1.61869
-9.7475,1.61431
-9.745,1.61161
-9.7425,1.61397
-9.74,1.6197
-9.7375,1.62206
-9.735,1.62341
-9.7325,1.617
-9.73,1.61363
-9.7275,1.61094
-9.725,1.61599
-9.7225,1.62038
-9.72,1.62274
-9.7175,1.62038
-9.715,1.61498
-9.7125,1.61296
-9.71,1.61262
-9.7075,1.61869
-9.705,1.62274
-9.7025,1.62442
-9.7,1.62038
-9.6975,1.61599
-9.695,1.6133
-9.6925,1.61431
-9.69,1.61734
-9.6875,1.61936
-9.685,1.61903
-9.6825,1.6133
-9.68,1.61161
-9.6775,1.60959
-9.675,1.61532
-9.6725,1.61903
-9.67,1.6224
-9.6675,1.62105
-9.665,1.61498
-9.6625,1.61296
-9.66,1.61161
-9.6575,1.61903
-9.655,1.62307
-9.6525,1.62543
-9.65,1.61936
-9.6475,1.61397
-9.645,1.60993
-9.6425,1.61026
-9.64,1.61464
-9.6375,1.61599
-9.635,1.61397
-9.6325,1.60858
-9.63,1.60386
-9.6275,1.60251
-9.625,1.60723
-9.6225,1.61262
-9.62,1.61566
-9.6175,1.61464
-9.615,1.6106
-9.6125,1.6079
-9.61,1.60689
-9.6075,1.61262
-9.605,1.61532
-9.6025,1.61667
-9.6,1.61127
-9.5975,1.60689
-9.595,1.60352
-9.5925,1.60588
-9.59,1.61127
-9.5875,1.61397
-9.585,1.61498
-9.5825,1.60891
-9.58,1.60655
-9.5775,1.60453
-9.575,1.60925
-9.5725,1.61363
-9.57,1.61667
-9.5675,1.61363
-9.565,1.60925
-9.5625,1.60655
-9.56,1.60554
-9.5575,1.61161
-9.555,1.61397
-9.5525,1.61633
-9.55,1.61161
-9.5475,1.60723
-9.545,1.60554
-9.5425,1.60689
-9.54,1.61127
-9.5375,1.61498
-9.535,1.61532
-9.5325,1.60993
-9.53,1.60689
-9.5275,1.60453
-9.525,1.60925
-9.5225,1.61296
-9.52,1.61599
-9.5175,1.61363
-9.515,1.60891
-9.5125,1.60622
-9.51,1.60419
-9.5075,1.60959
-9.505,1.61262
-9.5025,1.61498
-9.5,1.6106
-9.4975,1.60655
-9.495,1.60386
-9.4925,1.60554
-9.49,1.61161
-9.4875,1.61464
-9.485,1.61498
-9.4825,1.60959
-9.48,1.60622
-9.4775,1.60352
-9.475,1.60891
-9.4725,1.61262
-9.47,1.61532
-9.4675,1.6133
-9.465,1.6079
-9.4625,1.60554
-9.46,1.60487
-9.4575,1.61026
-9.455,1.61397
-9.4525,1.61599
-9.45,1.61094
-9.4475,1.60723
-9.445,1.60453
-9.4425,1.60655
-9.44,1.61195
-9.4375,1.61498
-9.435,1.61566
-9.4325,1.60925
-9.43,1.60655
-9.4275,1.60419
-9.425,1.60925
-9.4225,1.61363
-9.42,1.61532
-9.4175,1.61363
-9.415,1.60824
-9.4125,1.60588
-9.41,1.60521
-9.4075,1.6106
-9.405,1.61431
-9.4025,1.61599
-9.4,1.61161
-9.3975,1.60757
-9.395,1.60487
-9.3925,1.60757
-9.39,1.61161
-9.3875,1.61464
-9.385,1.61532
-9.3825,1.60959
-9.38,1.60689
-9.3775,1.60419
-9.375,1.60891
-9.3725,1.61296
-9.37,1.61532
-9.3675,1.61363
-9.365,1.60858
-9.3625,1.60554
-9.36,1.60487
-9.3575,1.61026
-9.355,1.61431
-9.3525,1.61667
-9.35,1.61127
-9.3475,1.60757
-9.345,1.60521
-9.3425,1.60655
-9.34,1.61195
-9.3375,1.61532
-9.335,1.61566
-9.3325,1.60993
-9.33,1.60655
-9.3275,1.60419
-9.325,1.60858
-9.3225,1.6133
-9.32,1.61566
-9.3175,1.61363
-9.315,1.60858
-9.3125,1.60521
-9.31,1.60521
-9.3075,1.6106
-9.305,1.61431
-9.3025,1.61599
-9.3,1.61127
-9.2975,1.60723
-9.295,1.60521
-9.2925,1.60689
-9.29,1.61195
-9.2875,1.61498
-9.285,1.61532
-9.2825,1.60925
-9.28,1.60689
-9.2775,1.60419
-9.275,1.60925
-9.2725,1.6133
-9.27,1.61532
-9.2675,1.61262
-9.265,1.6079
-9.2625,1.60554
-9.26,1.60453
-9.2575,1.61026
-9.255,1.61363
-9.2525,1.61532
-9.25,1.61094
-9.2475,1.6079
-9.245,1.60487
-9.2425,1.60723
-9.24,1.61161
-9.2375,1.61431
-9.235,1.61464
-9.2325,1.60959
-9.23,1.60622
-9.2275,1.60386
-9.225,1.60858
-9.2225,1.61229
-9.22,1.61532
-9.2175,1.6133
-9.215,1.60858
-9.2125,1.60622
-9.21,1.60521
-9.2075,1.6106
-9.205,1.61397
-9.2025,1.61633
-9.2,1.61161
-9.1975,1.60757
-9.195,1.60521
-9.1925,1.60655
-9.19,1.61229
-9.1875,1.61464
-9.185,1.61566
-9.1825,1.60993
-9.18,1.60655
-9.1775,1.60487
-9.175,1.60858
-9.1725,1.6133
-9.17,1.61599
-9.1675,1.61363
-9.165,1.60858
-9.1625,1.60554
-9.16,1.60554
-9.1575,1.61026
-9.155,1.61431
-9.1525,1.61667
-9.15,1.61127
-9.1475,1.60757
-9.145,1.60521
-9.1425,1.60689
-9.14,1.61195
-9.1375,1.61498
-9.135,1.61566
-9.1325,1.60959
-9.13,1.60689
-9.1275,1.60453
-9.125,1.60925
-9.1225,1.6133
-9.12,1.61532
-9.1175,1.6133
-9.115,1.60891
-9.1125,1.60622
-9.11,1.60487
-9.1075,1.61094
-9.105,1.61431
-9.1025,1.61566
-9.1,1.61195
-9.0975,1.60757
-9.095,1.60521
-9.0925,1.60723
-9.09,1.61161
-9.0875,1.61498
-9.085,1.61532
-9.0825,1.60959
-9.08,1.60689
-9.0775,1.60419
-9.075,1.60891
-9.0725,1.61296
-9.07,1.61566
-9.0675,1.61397
-9.065,1.60824
-9.0625,1.60588
-9.06,1.60487
-9.0575,1.61026
-9.055,1.61397
-9.0525,1.61633
-9.05,1.61161
-9.0475,1.6079
-9.045,1.60487
-9.0425,1.60622
-9.04,1.61195
-9.0375,1.61464
-9.035,1.61566
-9.0325,1.60993
-9.03,1.60622
-9.0275,1.60386
-9.025,1.60891
-9.0225,1.6133
-9.02,1.61599
-9.0175,1.6133
-9.015,1.6079
-9.0125,1.60487
-9.01,1.60453
-9.0075,1.60993
-9.005,1.61363
-9.0025,1.61599
-9,1.61094
-8.9975,1.60689
-8.995,1.60453
-8.9925,1.60723
-8.99,1.61161
-8.9875,1.61464
-8.985,1.61532
-8.9825,1.60891
-8.98,1.60655
-8.9775,1.60419
-8.975,1.60858
-8.9725,1.6133
-8.97,1.61532
-8.9675,1.61363
-8.965,1.6079
-8.9625,1.60622
-8.96,1.60521
-8.9575,1.6106
-8.955,1.61431
-8.9525,1.61566
-8.95,1.61161
-8.9475,1.60757
-8.945,1.60521
-8.9425,1.60723
-8.94,1.61161
-8.9375,1.61431
-8.935,1.61498
-8.9325,1.60993
-8.93,1.60689
-8.9275,1.60487
-8.925,1.60925
-8.9225,1.61296
-8.92,1.61599
-8.9175,1.6133
-8.915,1.60891
-8.9125,1.60622
-8.91,1.60554
-8.9075,1.61026
-8.905,1.61397
-8.9025,1.61667
-8.9,1.61161
-8.8975,1.60757
-8.895,1.60554
-8.8925,1.60655
-8.89,1.61195
-8.8875,1.61498
-8.885,1.61566
-8.8825,1.61026
-8.88,1.60689
-8.8775,1.60419
-8.875,1.60891
-8.8725,1.6133
-8.87,1.61566
-8.8675,1.61397
-8.865,1.60925
-8.8625,1.60554
-8.86,1.60554
-8.8575,1.6106
-8.855,1.61431
-8.8525,1.61633
-8.85,1.61161
-8.8475,1.60723
-8.845,1.60521
-8.8425,1.60723
-8.84,1.61229
-8.8375,1.61498
-8.835,1.61566
-8.8325,1.60925
-8.83,1.60689
-8.8275,1.60453
-8.825,1.60891
-8.8225,1.6133
-8.82,1.61566
-8.8175,1.61363
-8.815,1.60824
-8.8125,1.60622
-8.81,1.60521
-8.8075,1.61094
-8.805,1.61363
-8.8025,1.61633
-8.8,1.61195
-8.7975,1.60757
-8.795,1.60521
-8.7925,1.60689
-8.79,1.61195
-8.7875,1.61532
-8.785,1.61566
-8.7825,1.6106
-8.78,1.60723
-8.7775,1.60386
-8.775,1.60858
-8.7725,1.6133
-8.77,1.61566
-8.7675,1.61363
-8.765,1.60858
-8.7625,1.60554
-8.76,1.60521
-8.7575,1.6106
-8.755,1.61397
-8.7525,1.61599
-8.75,1.61094
-8.7475,1.60689
-8.745,1.60487
-8.7425,1.60655
-8.74,1.61161
-8.7375,1.61464
-8.735,1.61532
-8.7325,1.60925
-8.73,1.60689
-8.7275,1.60419
-8.725,1.60925
-8.7225,1.61363
-8.72,1.61532
-8.7175,1.61363
-8.715,1.60925
-8.7125,1.60655
-8.71,1.60554
-8.7075,1.61127
-8.705,1.61397
-8.7025,1.61633
-8.7,1.61229
-8.6975,1.60757
-8.695,1.60521
-8.6925,1.60689
-8.69,1.61161
-8.6875,1.61498
-8.685,1.61532
-8.6825,1.61094
-8.68,1.60757
-8.6775,1.60554
-8.675,1.61026
-8.6725,1.61397
-8.67,1.61633
-8.6675,1.61498
-8.665,1.61026
-8.6625,1.60723
-8.66,1.60622
-8.6575,1.61195
-8.655,1.61498
-8.6525,1.61667
-8.65,1.61161
-8.6475,1.60655
-8.645,1.60419
-8.6425,1.60554
-8.64,1.61094
-8.6375,1.61431
-8.635,1.61498
-8.6325,1.60858
-8.63,1.60622
-8.6275,1.60386
-8.625,1.60891
-8.6225,1.61363
-8.62,1.61532
-8.6175,1.61363
-8.615,1.60993
-8.6125,1.60858
-8.61,1.62105
-8.6075,1.63251
-8.605,1.55902
-8.6025,1.56475
-8.6,1.83612
-8.5975,2.05523
-8.595,2.10445
-8.5925,2.07411
-8.59,1.97905
-8.5875,1.83848
-8.585,1.71038
-8.5825,1.64026
-8.58,1.62408
-8.5775,1.61498
-8.575,1.61936
-8.5725,1.64128
-8.57,1.65543
-8.5675,1.6406
-8.565,1.63285
-8.5625,1.62813
-8.56,1.6224
-8.5575,1.62375
-8.555,1.6315
-8.5525,1.63319
-8.55,1.62408
-8.5475,1.62004
-8.545,1.6197
-8.5425,1.62105
-8.54,1.62307
-8.5375,1.61768
-8.535,1.61802
-8.5325,1.61431
-8.53,1.61296
-8.5275,1.61127
-8.525,1.61431
-8.5225,1.61768
-8.52,1.62038
-8.5175,1.62139
-8.515,1.617
-8.5125,1.61599
-8.51,1.61599
-8.5075,1.6224
-8.505,1.62678
-8.5025,1.63049
-8.5,1.62577
-8.4975,1.62004
-8.495,1.61667
-8.4925,1.61532
-8.49,1.617
-8.4875,1.61903
-8.485,1.617
-8.4825,1.60959
-8.48,1.60757
-8.4775,1.60554
-8.475,1.60993
-8.4725,1.61431
-8.47,1.61734
-8.4675,1.61599
-8.465,1.61094
-8.4625,1.60858
-8.46,1.6079
-8.4575,1.61296
-8.455,1.61599
-8.4525,1.61903
-8.45,1.61464
-8.4475,1.6106
-8.445,1.60925
-8.4425,1.60993
-8.44,1.61532
-8.4375,1.61835
-8.435,1.61903
-8.4325,1.6133
-8.43,1.60891
-8.4275,1.60622
-8.425,1.61127
-8.4225,1.61464
-8.42,1.617
-8.4175,1.61532
-8.415,1.60993
-8.4125,1.60723
-8.41,1.60655
-8.4075,1.61229
-8.405,1.61532
-8.4025,1.61768
-8.4,1.61262
-8.3975,1.60858
-8.395,1.60554
-8.3925,1.60723
-8.39,1.61262
-8.3875,1.61566
-8.385,1.61667
-8.3825,1.61026
-8.38,1.60723
-8.3775,1.60487
-8.375,1.60959
-8.3725,1.6133
-8.37,1.61498
-8.3675,1.61262
-8.365,1.60655
-8.3625,1.60419
-8.36,1.60217
-8.3575,1.60757
-8.355,1.61026
-8.3525,1.61127
-8.35,1.60689
-8.3475,1.60251
-8.345,1.59948
-8.3425,1.60116
-8.34,1.60554
-8.3375,1.60925
-8.335,1.61262
-8.3325,1.63116
-8.33,1.6379
-8.3275,1.65139
-8.325,1.56947
-8.3225,1.61161
-8.32,1.69353
-8.3175,1.78926
-8.315,1.86713
-8.3125,1.84488
-8.31,1.79196
-8.3075,1.74443
-8.305,1.67667
-8.3025,1.64364
-8.3,1.62914
-8.2975,1.61768
-8.295,1.61768
-8.2925,1.63049
-8.29,1.63925
-8.2875,1.63824
-8.285,1.6406
-8.2825,1.62847
-8.28,1.61397
-8.2775,1.61161
-8.275,1.61667
-8.2725,1.61599
-8.27,1.61363
-8.2675,1.61566
-8.265,1.60993
-8.2625,1.60521
-8.26,1.60588
-8.2575,1.61127
-8.255,1.61296
-8.2525,1.61464
-8.25,1.61094
-8.2475,1.60554
-8.245,1.60386
-8.2425,1.60622
-8.24,1.61161
